[
    {
        "id":0,
        "titulo": "tarea uno",
        "descripcion" : "Salir a correr mañana",
        "hecho" : false
    },
    {
        "id":1,
        "titulo": "tarea dos",
        "descripcion" : "Salir a correr mañana",
        "hecho" : true
    },
    {
        "id":2,
        "titulo": "tarea tres",
        "descripcion" : "Salir a correr mañana",
        "hecho" : true
    },
    {
        "id":3,
        "titulo": "tarea cuatro",
        "descripcion" : "Salir a correr mañana",
        "hecho" : true
    },
    {
        "id":4,
        "titulo": "tarea cinco",
        "descripcion" : "Salir a correr mañana",
        "hecho" : false
    }
]